{
	"agentes": [
		{
			"agId": "plane1",
			"domainPath": "/media/leonardo/DADOS/Mestrado/Dropbox/LeonardoMoreira-PPGInf/Dissertação/inputs/Evaluation/Scalability/Logistics/domainPlane.pddl",
			"problemPath":"/media/leonardo/DADOS/Mestrado/Dropbox/LeonardoMoreira-PPGInf/Dissertação/inputs/Evaluation/Scalability/Logistics/plane1.pddl"
		},
		{
			"agId": "truck1",
			"domainPath": "/media/leonardo/DADOS/Mestrado/Dropbox/LeonardoMoreira-PPGInf/Dissertação/inputs/Evaluation/Scalability/Logistics/domainTruck.pddl",
			"problemPath":"/media/leonardo/DADOS/Mestrado/Dropbox/LeonardoMoreira-PPGInf/Dissertação/inputs/Evaluation/Scalability/Logistics/truck1.pddl"
		},
		{
			"agId": "truck2",
			"domainPath": "/media/leonardo/DADOS/Mestrado/Dropbox/LeonardoMoreira-PPGInf/Dissertação/inputs/Evaluation/Scalability/Logistics/domainTruck.pddl",
			"problemPath":"/media/leonardo/DADOS/Mestrado/Dropbox/LeonardoMoreira-PPGInf/Dissertação/inputs/Evaluation/Scalability/Logistics/truck2.pddl"
		},
		{
			"agId": "truck3",
			"domainPath": "/media/leonardo/DADOS/Mestrado/Dropbox/LeonardoMoreira-PPGInf/Dissertação/inputs/Evaluation/Scalability/Logistics/domainTruck.pddl",
			"problemPath":"/media/leonardo/DADOS/Mestrado/Dropbox/LeonardoMoreira-PPGInf/Dissertação/inputs/Evaluation/Scalability/Logistics/truck3.pddl"
		},
		{
			"agId": "truck4",
			"domainPath": "/media/leonardo/DADOS/Mestrado/Dropbox/LeonardoMoreira-PPGInf/Dissertação/inputs/Evaluation/Scalability/Logistics/domainTruck.pddl",
			"problemPath":"/media/leonardo/DADOS/Mestrado/Dropbox/LeonardoMoreira-PPGInf/Dissertação/inputs/Evaluation/Scalability/Logistics/truck4.pddl"
		},
		{
			"agId": "plane2",
			"domainPath": "/media/leonardo/DADOS/Mestrado/Dropbox/LeonardoMoreira-PPGInf/Dissertação/inputs/Evaluation/Scalability/Logistics/domainPlane.pddl",
			"problemPath":"/media/leonardo/DADOS/Mestrado/Dropbox/LeonardoMoreira-PPGInf/Dissertação/inputs/Evaluation/Scalability/Logistics/plane2.pddl"
		},
		{
			"agId": "plane3",
			"domainPath": "/media/leonardo/DADOS/Mestrado/Dropbox/LeonardoMoreira-PPGInf/Dissertação/inputs/Evaluation/Scalability/Logistics/domainPlane.pddl",
			"problemPath":"/media/leonardo/DADOS/Mestrado/Dropbox/LeonardoMoreira-PPGInf/Dissertação/inputs/Evaluation/Scalability/Logistics/plane3.pddl"
		},
		{
			"agId": "plane4",
			"domainPath": "/media/leonardo/DADOS/Mestrado/Dropbox/LeonardoMoreira-PPGInf/Dissertação/inputs/Evaluation/Scalability/Logistics/domainPlane.pddl",
			"problemPath":"/media/leonardo/DADOS/Mestrado/Dropbox/LeonardoMoreira-PPGInf/Dissertação/inputs/Evaluation/Scalability/Logistics/plane4.pddl"
		},
		{
			"agId": "truck11",
			"domainPath": "/media/leonardo/DADOS/Mestrado/Dropbox/LeonardoMoreira-PPGInf/Dissertação/inputs/Evaluation/Scalability/Logistics/domainTruck.pddl",
			"problemPath":"/media/leonardo/DADOS/Mestrado/Dropbox/LeonardoMoreira-PPGInf/Dissertação/inputs/Evaluation/Scalability/Logistics/truck11.pddl"
		}		
	]
}



